Actionable Learning Institute - Correlation Analysis with R
…
A Quick Summary using dataxray

click here to view code

library(dataxray)
library(DT)
library(gt)
data%>%
  make_xray(by = 'Loan_Status')

# A tibble: 22 × 14
   Loan_St…¹ ORDER TYPE  VAR   LABEL FORMAT UNITS     n missing disti…² counts…³
   <fct>     <int> <chr> <chr> <chr> <chr>  <chr> <dbl>   <dbl>   <dbl> <list>  
 1 Y             1 CHAR  Gend… <NA>  <NA>   <NA>    414       8       2 <tibble>
 2 Y             2 CHAR  Marr… <NA>  <NA>   <NA>    419       3       2 <tibble>
 3 Y             3 CHAR  Depe… <NA>  <NA>   <NA>    413       9       4 <tibble>
 4 Y             4 CHAR  Educ… <NA>  <NA>   <NA>    422       0       2 <tibble>
 5 Y             5 CHAR  Self… <NA>  <NA>   <NA>    399      23       2 <tibble>
 6 Y             6 NUM   Appl… <NA>  <NA>   <NA>    422       0     364 <tibble>
 7 Y             7 NUM   Coap… <NA>  <NA>   <NA>    422       0     215 <tibble>
 8 Y             8 NUM   Loan… <NA>  <NA>   <NA>    411      11     161 <tibble>
 9 Y             9 NUM   Loan… <NA>  <NA>   <NA>    414       8       9 <tibble>
10 Y            10 CHAR  Cred… <NA>  <NA>   <NA>    385      37       2 <tibble>
# … with 12 more rows, 3 more variables: values_df <list>, extremes_df <list>,
#   spike_hist <list>, and abbreviated variable names ¹​Loan_Status, ²​distinct,
#   ³​counts_df
…
